<?xml version="1.0" encoding="UTF-8"?>
<svg width="20px" height="20px" viewBox="0 0 20 20" version="1.1" xmlns="http://www.w3.org/2000/svg" xmlns:xlink="http://www.w3.org/1999/xlink">
    <!-- Generator: Sketch 54.1 (76490) - https://sketchapp.com -->
    <title>Castle</title>
    <desc>Created with Sketch.</desc>
    <g id="Castle" stroke="none" stroke-width="1" fill="none" fill-rule="evenodd">
        <circle id="path9" stroke="#9600AE" fill="#FFFFFF" fill-rule="nonzero" cx="10" cy="10" r="9.5"></circle>
        <path d="M4.83333343,5 L4,6.25000014 L4,6.66666663 L8.16666692,6.66666663 L8.16666692,6.25000014 L7.33333337,5 L4.83333343,5 Z M12.3333341,5 L11.5000006,6.25000014 L11.5000006,6.66666663 L15.6666676,6.66666663 L15.6666676,6.25000014 L14.8333351,5 L12.3333341,5 Z M4,7.50000006 L4,15.0000001 L8.16666692,15 C8.16666692,14.1666675 8.16666692,12.4999995 9.83333366,12.4999995 C11.5,12.5000001 11.5000006,14.1666675 11.5,15.0000001 L15.6666676,15 L15.6666676,7.50000006 L11.5,7.50000006 L11.5000006,9.16666645 L9.83333366,9.16666645 L8.16666692,9.16666645 L8.16666692,7.50000006 L4,7.50000006 Z M5.66666686,9.16666645 L6.50000017,9.16666645 L6.50000017,9.99999988 L6.08333346,10.8333333 L5.66666686,9.99999988 L5.66666686,9.16666645 Z M13.1666677,9.16666645 L14.0000002,9.16666645 L14.0000002,9.99999988 L13.583334,10.8333333 L13.1666677,9.99999988 L13.1666677,9.16666645 Z" id="path824" fill="#9600AE" fill-rule="nonzero"></path>
    </g>
</svg>