<?xml version="1.0" encoding="UTF-8"?>
<svg width="20px" height="20px" viewBox="0 0 20 20" version="1.1" xmlns="http://www.w3.org/2000/svg" xmlns:xlink="http://www.w3.org/1999/xlink">
    <!-- Generator: Sketch 54.1 (76490) - https://sketchapp.com -->
    <title>CastleRuin-Selected</title>
    <desc>Created with Sketch.</desc>
    <g id="CastleRuin-Selected" stroke="none" stroke-width="1" fill="none" fill-rule="evenodd">
        <circle id="path9" stroke="#FFBA00" fill="#FFFFFF" fill-rule="nonzero" cx="10" cy="10" r="9.5"></circle>
        <g id="Group-5" transform="translate(5.000000, 4.000000)">
            <path d="M0.00267142857,8.44925714 L0.00267142857,5.96388571 L0.11055,5.87329286 C0.312321429,5.70389286 0.388142857,5.60316429 0.524778571,5.32313571 L0.659842857,5.04617143 L0.591407143,4.75671429 L0.522971429,4.46717857 L0.621342857,4.23649286 C0.675478571,4.1096 0.720264286,3.98922857 0.720892857,3.96903571 C0.721521429,3.94876429 0.683571429,3.77771429 0.636664286,3.58882857 C0.56485,3.29960714 0.536721429,3.22268571 0.458621429,3.10113571 L0.365828571,2.9568 L0.477871429,2.54642143 L1.71717857,2.54642143 C2.77537857,2.54642143 2.96968571,2.55207857 3.04645,2.5839 C3.15079286,2.62727143 3.1878,2.67606429 3.1878,2.77042857 C3.1878,2.80743571 3.19935,2.84640714 3.21341429,2.85693571 C3.22755714,2.86738571 3.34007143,2.893 3.46350714,2.91366429 L3.68782857,2.9513 L3.72719286,3.09225714 C3.75602857,3.19557857 3.77661429,3.23321429 3.80419286,3.23321429 C3.90869286,3.23321429 3.90688571,3.22276429 3.90688571,3.83640714 L3.90688571,4.4099 L4.62102143,4.41642143 L5.33507857,4.42294286 L5.35283571,4.70831429 L5.37059286,4.99360714 L5.71206429,5.05952857 C5.89992857,5.09575 6.05628571,5.12851429 6.05950714,5.13236429 C6.06257143,5.13605714 6.07805,5.29131429 6.09352857,5.47705714 C6.11081429,5.6848 6.13132143,5.82190714 6.14687857,5.83337857 C6.16086429,5.84367143 6.34377857,5.86009286 6.55356429,5.86999286 L6.93487143,5.88790714 L7.38327857,6.2447 L7.83176429,6.60141429 L7.83647857,6.92245714 C7.83883571,7.09900714 7.84032857,7.27767857 7.83954286,7.31947857 L7.83805,7.39545714 L8.07643571,7.46059286 C8.24505,7.50655714 8.3721,7.52565 8.51062143,7.52565 L8.70642143,7.52557143 L8.8319,7.67886429 C8.91039286,7.77472143 8.99666429,7.91827143 9.06242857,8.06213571 C9.16174286,8.27938571 9.16755714,8.30217143 9.16755714,8.47125714 L9.16755714,8.65024286 L9.57699286,8.96099286 L9.98635,9.27174286 L10.1125357,9.69076429 C10.1818357,9.92121429 10.2465786,10.1273857 10.2562429,10.1489143 C10.2658286,10.1704429 10.4223429,10.2926214 10.6039214,10.4203786 L10.9340786,10.6527143 L10.9344714,10.79375 L10.9347857,10.9347857 L8.99611429,10.9347857 L7.05744286,10.9347857 L7.04408571,10.5240143 C7.01815714,9.72565 6.91915714,9.23740714 6.7034,8.84352857 C6.44105,8.36471429 6.04866429,8.13850714 5.48082857,8.1389 C4.99557143,8.13921429 4.69495714,8.27042857 4.4198,8.60192143 C4.08846429,9.00114286 3.93878571,9.56135714 3.91285714,10.4994214 L3.90083571,10.9347857 L1.95171429,10.9347857 L0.00267142857,10.9347857 L0.00267142857,8.44925714 Z M2.16707857,5.79016429 L2.3683,5.30569286 L2.36201429,4.85194286 L2.35572857,4.39819286 L1.9602,4.39167143 L1.56459286,4.38515 L1.56459286,4.87606429 L1.56459286,5.36697857 L1.75442143,5.82088571 C1.85884286,6.07050714 1.9492,6.27479286 1.95517143,6.27479286 C1.96145714,6.27479286 2.05668571,6.05683571 2.16731429,5.7904 L2.16707857,5.79016429 Z" id="Fill-1" fill="#FFBA00"></path>
            <path d="M0.00267142857,8.44925714 L0.00267142857,5.96388571 L0.11055,5.87329286 C0.312321429,5.70389286 0.388142857,5.60316429 0.524778571,5.32313571 L0.659842857,5.04617143 L0.591407143,4.75671429 L0.522971429,4.46717857 L0.621342857,4.23649286 C0.675478571,4.1096 0.720264286,3.98922857 0.720892857,3.96903571 C0.721521429,3.94876429 0.683571429,3.77771429 0.636664286,3.58882857 C0.56485,3.29960714 0.536721429,3.22268571 0.458621429,3.10113571 L0.365828571,2.9568 L0.477871429,2.54642143 L1.71717857,2.54642143 C2.77537857,2.54642143 2.96968571,2.55207857 3.04645,2.5839 C3.15079286,2.62727143 3.1878,2.67606429 3.1878,2.77042857 C3.1878,2.80743571 3.19935,2.84640714 3.21341429,2.85693571 C3.22755714,2.86738571 3.34007143,2.893 3.46350714,2.91366429 L3.68782857,2.9513 L3.72719286,3.09225714 C3.75602857,3.19557857 3.77661429,3.23321429 3.80419286,3.23321429 C3.90869286,3.23321429 3.90688571,3.22276429 3.90688571,3.83640714 L3.90688571,4.4099 L4.62102143,4.41642143 L5.33507857,4.42294286 L5.35283571,4.70831429 L5.37059286,4.99360714 L5.71206429,5.05952857 C5.89992857,5.09575 6.05628571,5.12851429 6.05950714,5.13236429 C6.06257143,5.13605714 6.07805,5.29131429 6.09352857,5.47705714 C6.11081429,5.6848 6.13132143,5.82190714 6.14687857,5.83337857 C6.16086429,5.84367143 6.34377857,5.86009286 6.55356429,5.86999286 L6.93487143,5.88790714 L7.38327857,6.2447 L7.83176429,6.60141429 L7.83647857,6.92245714 C7.83883571,7.09900714 7.84032857,7.27767857 7.83954286,7.31947857 L7.83805,7.39545714 L8.07643571,7.46059286 C8.24505,7.50655714 8.3721,7.52565 8.51062143,7.52565 L8.70642143,7.52557143 L8.8319,7.67886429 C8.91039286,7.77472143 8.99666429,7.91827143 9.06242857,8.06213571 C9.16174286,8.27938571 9.16755714,8.30217143 9.16755714,8.47125714 L9.16755714,8.65024286 L9.57699286,8.96099286 L9.98635,9.27174286 L10.1125357,9.69076429 C10.1818357,9.92121429 10.2465786,10.1273857 10.2562429,10.1489143 C10.2658286,10.1704429 10.4223429,10.2926214 10.6039214,10.4203786 L10.9340786,10.6527143 L10.9344714,10.79375 L10.9347857,10.9347857 L8.99611429,10.9347857 L7.05744286,10.9347857 L7.04408571,10.5240143 C7.01815714,9.72565 6.91915714,9.23740714 6.7034,8.84352857 C6.44105,8.36471429 6.04866429,8.13850714 5.48082857,8.1389 C4.99557143,8.13921429 4.69495714,8.27042857 4.4198,8.60192143 C4.08846429,9.00114286 3.93878571,9.56135714 3.91285714,10.4994214 L3.90083571,10.9347857 L1.95171429,10.9347857 L0.00267142857,10.9347857 L0.00267142857,8.44925714 Z M2.16707857,5.79016429 L2.3683,5.30569286 L2.36201429,4.85194286 L2.35572857,4.39819286 L1.9602,4.39167143 L1.56459286,4.38515 L1.56459286,4.87606429 L1.56459286,5.36697857 L1.75442143,5.82088571 C1.85884286,6.07050714 1.9492,6.27479286 1.95517143,6.27479286 C1.96145714,6.27479286 2.05668571,6.05683571 2.16731429,5.7904 L2.16707857,5.79016429 Z" id="Stroke-2"></path>
            <path d="M0.5489,1.20355714 L0.534285714,0.8173 L0.450685714,0.663378571 L0.367007143,0.509457143 L0.482978571,0.301557143 C0.54835,0.184328571 0.61325,0.0937357143 0.631871429,0.0937357143 C0.650021429,0.0937357143 0.803785714,0.121785714 0.973578571,0.156042857 L1.28228571,0.218428571 L1.48633571,0.0130428571 L1.79763571,0.0685928571 L2.10893571,0.124221429 L2.37607857,0.00267142857 L2.63057143,0.0893357143 L2.88514286,0.175921429 L2.98296429,0.110314286 C3.07748571,0.0469071429 3.17059286,0.0299357143 3.26275714,0.0595571429 C3.29182857,0.0688285714 3.40984286,0.257871429 3.60697857,0.610971429 L3.90696429,1.14824286 L3.90696429,1.36910714 L3.90696429,1.58989286 L2.2352,1.58989286 L0.563435714,1.58989286 L0.5489,1.20355714 Z" id="Fill-3" fill="#FFBA00"></path>
            <path d="M0.5489,1.20355714 L0.534285714,0.8173 L0.450685714,0.663378571 L0.367007143,0.509457143 L0.482978571,0.301557143 C0.54835,0.184328571 0.61325,0.0937357143 0.631871429,0.0937357143 C0.650021429,0.0937357143 0.803785714,0.121785714 0.973578571,0.156042857 L1.28228571,0.218428571 L1.48633571,0.0130428571 L1.79763571,0.0685928571 L2.10893571,0.124221429 L2.37607857,0.00267142857 L2.63057143,0.0893357143 L2.88514286,0.175921429 L2.98296429,0.110314286 C3.07748571,0.0469071429 3.17059286,0.0299357143 3.26275714,0.0595571429 C3.29182857,0.0688285714 3.40984286,0.257871429 3.60697857,0.610971429 L3.90696429,1.14824286 L3.90696429,1.36910714 L3.90696429,1.58989286 L2.2352,1.58989286 L0.563435714,1.58989286 L0.5489,1.20355714 Z" id="Stroke-4"></path>
        </g>
    </g>
</svg>