{
    "en": {
        "translation": {
            "page-title": "Castle Dossier Map Switzerland",
            "about": "About",
            "no-image-available": "No image available",
            "image-loading-error": "Failed to load image",
            "ruin": "Ruin",
            "defensive": "Defensive Castle",
            "palace": "Palace",
            "stately": "Stately Home",
            "manor": "Manor House",
            "fortress": "Fortress",
            "castrum": "Roman Fort",
            "shiro": "Shiro",
            "kremlin": "Kremlin",
            "fully-wheelchair-accessible": "Fully wheelchair accessible",
            "partially-wheelchair-accessible": "Partially wheelchair accessible",
            "not-wheelchair-accessible": "Not wheelchair accessible",
            "read-more": "Read more",
            "search-placeholder": "Search",
            "add-tag": "Add '{{tag}}'",
            "add-tags": "Review object",
            "loading": "Loading...",
            "tower": "Tower",
            "archaeological_site": "Archaeological site",
            "more-pictures": "More pictures",
            "share": "Share",
            "copy-url": "Copy URL",
            "copy-text": "Copy Text",
            "unknown-name": "Name unkown",
            "close": "Close",
            "no-wikipedia-entry": "No English Wikipedia entry available",
            "alternative-languages": "There is an entry available in"
        }
    },
    "de": {
        "translation": {
            "page-title": "Burgen-Dossier-Karte Schweiz",
            "about": "Über",
            "no-image-available": "Kein Bild verfügbar",
            "image-loading-error": "Bild kann nicht geladen werden",
            "ruin": "Ruine",
            "defensive": "Burg",
            "palace": "Palast",
            "stately": "Schloss",
            "manor": "Herrenhaus",
            "fortress": "Festung",
            "castrum": "Römisches Militärlager",
            "shiro": "Shiro",
            "kremlin": "Kreml",
            "fully-wheelchair-accessible": "Vollständig rollstuhlgängig",
            "partially-wheelchair-accessible": "Teilweise rollstuhlgängig",
            "not-wheelchair-accessible": "Nicht rollstuhlgängig",
            "read-more": "Weiterlesen",
            "search-placeholder": "Suchen",
            "add-tag": "'{{tag}}' hinzufügen",
            "add-tags": "Objekt bewerten",
            "loading": "Laden...",
            "tower": "Turm",
            "archaeological_site": "Archäologische Stätte",
            "more-pictures": "Weitere Bilder",
            "share": "Teilen",
            "copy-url": "URL kopieren",
            "copy-text": "Text kopieren",
            "unknown-name": "Name unbekannt",
            "close": "Schliessen",
            "no-wikipedia-entry": "Kein deutscher Wikipedia-Eintrag vorhanden",
            "alternative-languages": "Eintrag verfügbar in"
        }
    },
    "fr": {
        "translation": {
            "page-title": "Carte du dossier des châteaux de la Suisse",
            "about": "Au sujet de",
            "no-image-available": "Aucune image disponible",
            "image-loading-error": "Échec du chargement de l'image",
            "ruin": "Ruine",
            "defensive": "Château fort",
            "palace": "Palais",
            "stately": "Château ",
            "manor": "Maison de maîtres",
            "fortress": "Forteresse",
            "castrum": "Camp militaire romain",
            "shiro": "Shiro",
            "kremlin": "Kremlin",
            "fully-wheelchair-accessible": "Entièrement accessible en fauteuil roulant",
            "partially-wheelchair-accessible": "Partiellement accessible en fauteuil roulant",
            "not-wheelchair-accessible": "Non accessible en fauteuil roulant",
            "read-more": "Lire la suite",
            "search-placeholder": "Rechercher",
            "add-tag": "Ajouter '{{tag}}'",
            "add-tags": "Évaluer l'objet",
            "loading": "Charger...",
            "tower": "Tour",
            "archaeological_site": "Archéologique site",
            "more-pictures": "Plus de photos",
            "share": "Partager",
            "copy-url": "Copier URL",
            "copy-text": "Copier le texte",
            "unknown-name": "Nom inconnu",
            "close": "Fermer",
            "no-wikipedia-entry": "Aucune entrée de Wikipédia française disponible",
            "alternative-languages": "Entrée disponible en"
        }
    },
    "rm": {
        "translation": {
            "page-title": "Charta dal Dossier da Chastès Svizzers",
            "about": "Davart",
            "no-image-available": "Nagin maletg",
            "image-loading-error": "Errur",
            "ruin": "Ruina",
            "defensive": "Chastè-fortezza",
            "palace": "Palaz",
            "stately": "Chastè",
            "manor": "Chasa signurila",
            "fortress": "Fortezza",
            "castrum": "Champ militar roman",
            "shiro": "Shiro",
            "kremlin": "Kremlin",
            "fully-wheelchair-accessible": "Cumplettamain adattà per sutgas cun rodas",
            "partially-wheelchair-accessible": "Parzialmain adattà per sutgas cun rodas",
            "not-wheelchair-accessible": "Betg adattà per sutgas cun rodas",
            "read-more": "Leger dapli",
            "search-placeholder": "Tgertgar",
            "add-tag": "Agiuntar '{{tag}}'",
            "add-tags": "Valetar in object",
            "loading": "Carger...",
            "tower": "Tur",
            "archaeological_site": "Lieu archeologic",
            "more-pictures": "Ulteriurs maletgs",
            "share": "Cundivider",
            "copy-url": "Copiar URL",
            "copy-text": "Copiar text",
            "unknown-name": "Num nunenconuschent",
            "close": "Supprimer",
            "no-wikipedia-entry": "Nagin notizia da Wikipedia existent en rumantsch",
            "alternative-languages": "Notizia existent en"
        }
    },
    "it": {
        "translation": {
            "page-title": "Mappa del dossier dei castelli Svizzeri",
            "about": "A proposito di",
            "no-image-available": "Nessuna immagine disponibile",
            "image-loading-error": "Caricamento dell'immagine fallito",
            "ruin": "Rovina",
            "defensive": "Castello difensivo",
            "palace": "Palazzo",
            "stately": "Casa signorile",
            "manor": "Casa padronale",
            "fortress": "Fortezza",
            "castrum": "Castello",
            "shiro": "Shiro",
            "kremlin": "Kremlino",
            "fully-wheelchair-accessible": "Completamente accessibile alle sedie a rotelle",
            "partially-wheelchair-accessible": "Parzialmente accessibile alle sedie a rotelle",
            "not-wheelchair-accessible": "Non accessibile alle sedie a rotelle",
            "read-more": "Continuare a leggere",
            "search-placeholder": "Ricerca",
            "add-tag": "Aggiungi '{{tag}}'",
            "add-tags": "Valuta l'oggetto",
            "loading": "Caricamento...",
            "tower": "Torre",
            "archaeological_site": "Sito archeologico",
            "more-pictures": "Altri immagini",
            "share": "Condividere",
            "copy-url": "Copia URL",
            "copy-text": "Copia testo",
            "unknown-name": "Nome sconosciuto",
            "close": "Chiudere",
            "no-wikipedia-entry": "Nessuna voce di Wikipedia in italiano disponibile",
            "alternative-languages": "Voce disponibile in"
        }
    }
}
